{
    "functions" : [
        { "name" : "f0", "size" : 3 }
    ],
    "robot_location" : [4, 4],
    "robot_orientation" : "right",
    "stars" : [
        [8, 1]
    ],
    "map" : [
        "__________",
        "________b_",
        "__gbbbg_b_",
        "__b___b_b_",
        "__b_bbg_b_",
        "__b_____b_",
        "__gbbbbbg_",
        "__________"
    ]
}
